what,kind,bundleId,bundleVersion,description,time
activated,workbench,org.eclipse.ui.workbench,3.7.1.v20120104-1859,"",1386308284587
deactivated,workbench,org.eclipse.ui.workbench,3.7.1.v20120104-1859,"",1386308286640
activated,workbench,org.eclipse.ui.workbench,3.7.1.v20120104-1859,"",1386308288276
deactivated,workbench,org.eclipse.ui.workbench,3.7.1.v20120104-1859,"",1386308304276
activated,workbench,org.eclipse.ui.workbench,3.7.1.v20120104-1859,"",1386308305724
deactivated,workbench,org.eclipse.ui.workbench,3.7.1.v20120104-1859,"",1386308307922
activated,workbench,org.eclipse.ui.workbench,3.7.1.v20120104-1859,"",1386308308380
executed,command,org.eclipse.ui,3.7.0.v20110928-1505,"org.eclipse.ui.edit.delete",1386308308391
deactivated,workbench,org.eclipse.ui.workbench,3.7.1.v20120104-1859,"",1386308318618
activated,workbench,org.eclipse.ui.workbench,3.7.1.v20120104-1859,"",1386308324709
opened,editor,org.eclipse.jdt.ui,3.7.2.v20120109-1427,"org.eclipse.jdt.ui.CompilationUnitEditor",1386308325100
activated,editor,org.eclipse.jdt.ui,3.7.2.v20120109-1427,"org.eclipse.jdt.ui.CompilationUnitEditor",1386308325192
deactivated,workbench,org.eclipse.ui.workbench,3.7.1.v20120104-1859,"",1386308326517
activated,workbench,org.eclipse.ui.workbench,3.7.1.v20120104-1859,"",1386308385214
deactivated,workbench,org.eclipse.ui.workbench,3.7.1.v20120104-1859,"",1386308390015
activated,workbench,org.eclipse.ui.workbench,3.7.1.v20120104-1859,"",1386308416973
deactivated,workbench,org.eclipse.ui.workbench,3.7.1.v20120104-1859,"",1386308425863
activated,workbench,org.eclipse.ui.workbench,3.7.1.v20120104-1859,"",1386308440538
executed,command,org.eclipse.ui,3.7.0.v20110928-1505,"org.eclipse.ui.file.save",1386308535861
deactivated,workbench,org.eclipse.ui.workbench,3.7.1.v20120104-1859,"",1386308537343
activated,workbench,org.eclipse.ui.workbench,3.7.1.v20120104-1859,"",1386308562583
executed,command,org.eclipse.ui,3.7.0.v20110928-1505,"org.eclipse.ui.file.save",1386308592524
executed,command,org.eclipse.ui,3.7.0.v20110928-1505,"org.eclipse.ui.file.save",1386308605409
executed,command,org.eclipse.ui,3.7.0.v20110928-1505,"org.eclipse.ui.file.save",1386308629470
deactivated,workbench,org.eclipse.ui.workbench,3.7.1.v20120104-1859,"",1386308708876
activated,workbench,org.eclipse.ui.workbench,3.7.1.v20120104-1859,"",1386308719771
activated,view,org.eclipse.jdt.ui,3.7.2.v20120109-1427,"org.eclipse.jdt.ui.PackageExplorer",1386308719794
opened,editor,org.eclipse.jdt.ui,3.7.2.v20120109-1427,"org.eclipse.jdt.ui.CompilationUnitEditor",1386308720943
activated,editor,org.eclipse.jdt.ui,3.7.2.v20120109-1427,"org.eclipse.jdt.ui.CompilationUnitEditor",1386308721043
activated,view,org.eclipse.jdt.ui,3.7.2.v20120109-1427,"org.eclipse.jdt.ui.PackageExplorer",1386308736308
activated,editor,org.eclipse.jdt.ui,3.7.2.v20120109-1427,"org.eclipse.jdt.ui.CompilationUnitEditor",1386308737552
deactivated,workbench,org.eclipse.ui.workbench,3.7.1.v20120104-1859,"",1386308740743
activated,workbench,org.eclipse.ui.workbench,3.7.1.v20120104-1859,"",1386308833207
deactivated,workbench,org.eclipse.ui.workbench,3.7.1.v20120104-1859,"",1386308836019
activated,workbench,org.eclipse.ui.workbench,3.7.1.v20120104-1859,"",1386309375058
activated,editor,org.eclipse.jdt.ui,3.7.2.v20120109-1427,"org.eclipse.jdt.ui.CompilationUnitEditor",1386309375210
activated,view,org.eclipse.jdt.ui,3.7.2.v20120109-1427,"org.eclipse.jdt.ui.PackageExplorer",1386309451752
activated,editor,org.eclipse.jdt.ui,3.7.2.v20120109-1427,"org.eclipse.jdt.ui.CompilationUnitEditor",1386309451968
activated,view,org.eclipse.jdt.ui,3.7.2.v20120109-1427,"org.eclipse.jdt.ui.PackageExplorer",1386309476131
activated,editor,org.eclipse.jdt.ui,3.7.2.v20120109-1427,"org.eclipse.jdt.ui.CompilationUnitEditor",1386309486643
activated,editor,org.eclipse.jdt.ui,3.7.2.v20120109-1427,"org.eclipse.jdt.ui.CompilationUnitEditor",1386309486712
closed,editor,org.eclipse.jdt.ui,3.7.2.v20120109-1427,"org.eclipse.jdt.ui.CompilationUnitEditor",1386309486712
activated,view,org.eclipse.jdt.ui,3.7.2.v20120109-1427,"org.eclipse.jdt.ui.PackageExplorer",1386309491106
activated,editor,org.eclipse.jdt.ui,3.7.2.v20120109-1427,"org.eclipse.jdt.ui.CompilationUnitEditor",1386309491352
activated,view,org.eclipse.jdt.ui,3.7.2.v20120109-1427,"org.eclipse.jdt.ui.PackageExplorer",1386309505837
activated,editor,org.eclipse.jdt.ui,3.7.2.v20120109-1427,"org.eclipse.jdt.ui.CompilationUnitEditor",1386309506033
deactivated,workbench,org.eclipse.ui.workbench,3.7.1.v20120104-1859,"",1386309953875
activated,workbench,org.eclipse.ui.workbench,3.7.1.v20120104-1859,"",1386310780025
deactivated,workbench,org.eclipse.ui.workbench,3.7.1.v20120104-1859,"",1386310784601
deactivated,workbench,org.eclipse.ui.workbench,3.7.1.v20120104-1859,"",1386310792343
activated,workbench,org.eclipse.ui.workbench,3.7.1.v20120104-1859,"",1386310792768
deactivated,workbench,org.eclipse.ui.workbench,3.7.1.v20120104-1859,"",1386310794258
activated,workbench,org.eclipse.ui.workbench,3.7.1.v20120104-1859,"",1386311708181
deactivated,workbench,org.eclipse.ui.workbench,3.7.1.v20120104-1859,"",1386311709403
activated,workbench,org.eclipse.ui.workbench,3.7.1.v20120104-1859,"",1386312117306
deactivated,workbench,org.eclipse.ui.workbench,3.7.1.v20120104-1859,"",1386312133795
activated,workbench,org.eclipse.ui.workbench,3.7.1.v20120104-1859,"",1386312133960
deactivated,workbench,org.eclipse.ui.workbench,3.7.1.v20120104-1859,"",1386312133973
activated,workbench,org.eclipse.ui.workbench,3.7.1.v20120104-1859,"",1386312138889
deactivated,workbench,org.eclipse.ui.workbench,3.7.1.v20120104-1859,"",1386312140362
activated,workbench,org.eclipse.ui.workbench,3.7.1.v20120104-1859,"",1386312348368
activated,view,org.eclipse.jdt.ui,3.7.2.v20120109-1427,"org.eclipse.jdt.ui.PackageExplorer",1386312351052
activated,view,org.eclipse.ui.console,3.5.100.v20111007_r372,"org.eclipse.ui.console.ConsoleView",1386312353399
activated,editor,org.eclipse.jdt.ui,3.7.2.v20120109-1427,"org.eclipse.jdt.ui.CompilationUnitEditor",1386312356649
deactivated,workbench,org.eclipse.ui.workbench,3.7.1.v20120104-1859,"",1386312374059
activated,workbench,org.eclipse.ui.workbench,3.7.1.v20120104-1859,"",1386312641991
activated,view,org.eclipse.jdt.ui,3.7.2.v20120109-1427,"org.eclipse.jdt.ui.PackageExplorer",1386312651146
activated,editor,org.eclipse.jdt.ui,3.7.2.v20120109-1427,"org.eclipse.jdt.ui.CompilationUnitEditor",1386312656938
activated,view,org.eclipse.jdt.ui,3.7.2.v20120109-1427,"org.eclipse.jdt.ui.PackageExplorer",1386312663434
opened,editor,org.eclipse.jdt.ui,3.7.2.v20120109-1427,"org.eclipse.jdt.ui.CompilationUnitEditor",1386312663694
activated,editor,org.eclipse.jdt.ui,3.7.2.v20120109-1427,"org.eclipse.jdt.ui.CompilationUnitEditor",1386312663802
deactivated,workbench,org.eclipse.ui.workbench,3.7.1.v20120104-1859,"",1386312670542
error,log,,,". Command line: hg -y debuginstall, error code: -1",1386312689114
activated,workbench,org.eclipse.ui.workbench,3.7.1.v20120104-1859,"",1386312689146
executed,command,org.eclipse.ui,3.7.0.v20110928-1505,"org.eclipse.ui.window.preferences",1386312689160
deactivated,workbench,org.eclipse.ui.workbench,3.7.1.v20120104-1859,"",1386312689270
activated,workbench,org.eclipse.ui.workbench,3.7.1.v20120104-1859,"",1386312691718
deactivated,workbench,org.eclipse.ui.workbench,3.7.1.v20120104-1859,"",1386312698908
activated,workbench,org.eclipse.ui.workbench,3.7.1.v20120104-1859,"",1386313163267
activated,editor,org.eclipse.jdt.ui,3.7.2.v20120109-1427,"org.eclipse.jdt.ui.CompilationUnitEditor",1386313166021
executed,command,org.eclipse.ui,3.7.0.v20110928-1505,"org.eclipse.ui.file.save",1386313214387
executed,command,org.eclipse.ui,3.7.0.v20110928-1505,"org.eclipse.ui.file.save",1386313286449
deactivated,workbench,org.eclipse.ui.workbench,3.7.1.v20120104-1859,"",1386313291916
activated,workbench,org.eclipse.ui.workbench,3.7.1.v20120104-1859,"",1386313379938
executed,command,org.eclipse.ui,3.7.0.v20110928-1505,"org.eclipse.ui.file.save",1386313399907
executed,command,org.eclipse.jdt.ui,3.7.2.v20120109-1427,"org.eclipse.jdt.ui.edit.text.java.organize.imports",1386313445026
executed,command,org.eclipse.ui,3.7.0.v20110928-1505,"org.eclipse.ui.file.save",1386313456581
executed,command,org.eclipse.ui,3.7.0.v20110928-1505,"org.eclipse.ui.file.save",1386313465004
executed,command,org.eclipse.ui,3.7.0.v20110928-1505,"org.eclipse.ui.file.save",1386313479617
executed,command,org.eclipse.ui,3.7.0.v20110928-1505,"org.eclipse.ui.file.save",1386313482736
activated,view,org.eclipse.jdt.ui,3.7.2.v20120109-1427,"org.eclipse.jdt.ui.PackageExplorer",1386313494518
deactivated,workbench,org.eclipse.ui.workbench,3.7.1.v20120104-1859,"",1386313497310
activated,workbench,org.eclipse.ui.workbench,3.7.1.v20120104-1859,"",1386313501901
opened,editor,org.eclipse.jdt.ui,3.7.2.v20120109-1427,"org.eclipse.jdt.ui.CompilationUnitEditor",1386313502299
activated,editor,org.eclipse.jdt.ui,3.7.2.v20120109-1427,"org.eclipse.jdt.ui.CompilationUnitEditor",1386313502393
executed,command,org.eclipse.ui,3.7.0.v20110928-1505,"org.eclipse.ui.file.save",1386313506791
executed,command,org.eclipse.ui,3.7.0.v20110928-1505,"org.eclipse.ui.file.save",1386313526682
executed,command,org.eclipse.ui,3.7.0.v20110928-1505,"org.eclipse.ui.edit.selectAll",1386313533460
executed,command,org.eclipse.ui,3.7.0.v20110928-1505,"org.eclipse.ui.file.save",1386313534362
executed,command,org.eclipse.ui,3.7.0.v20110928-1505,"org.eclipse.ui.file.save",1386313548106
executed,command,org.eclipse.ui,3.7.0.v20110928-1505,"org.eclipse.ui.file.save",1386313564269
activated,editor,org.eclipse.jdt.ui,3.7.2.v20120109-1427,"org.eclipse.jdt.ui.CompilationUnitEditor",1386313573116
activated,view,org.eclipse.jdt.ui,3.7.2.v20120109-1427,"org.eclipse.jdt.ui.PackageExplorer",1386313610940
opened,editor,org.eclipse.jdt.ui,3.7.2.v20120109-1427,"org.eclipse.jdt.ui.CompilationUnitEditor",1386313611205
activated,editor,org.eclipse.jdt.ui,3.7.2.v20120109-1427,"org.eclipse.jdt.ui.CompilationUnitEditor",1386313611311
activated,editor,org.eclipse.jdt.ui,3.7.2.v20120109-1427,"org.eclipse.jdt.ui.CompilationUnitEditor",1386313622511
closed,editor,org.eclipse.jdt.ui,3.7.2.v20120109-1427,"org.eclipse.jdt.ui.CompilationUnitEditor",1386313622512
deactivated,workbench,org.eclipse.ui.workbench,3.7.1.v20120104-1859,"",1386313638611
activated,workbench,org.eclipse.ui.workbench,3.7.1.v20120104-1859,"",1386313653385
executed,command,org.eclipse.jdt.ui,3.7.2.v20120109-1427,"org.eclipse.jdt.ui.edit.text.java.organize.imports",1386313685475
executed,command,org.eclipse.ui,3.7.0.v20110928-1505,"org.eclipse.ui.file.save",1386313698717
executed,command,org.eclipse.ui,3.7.0.v20110928-1505,"org.eclipse.ui.file.save",1386313709415
executed,command,org.eclipse.ui,3.7.0.v20110928-1505,"org.eclipse.ui.file.save",1386313757158
executed,command,org.eclipse.ui,3.7.0.v20110928-1505,"org.eclipse.ui.file.save",1386313762583
executed,command,org.eclipse.ui,3.7.0.v20110928-1505,"org.eclipse.ui.edit.undo",1386313766886
activated,view,org.eclipse.jdt.ui,3.7.2.v20120109-1427,"org.eclipse.jdt.ui.PackageExplorer",1386313779608
opened,editor,org.eclipse.jdt.ui,3.7.2.v20120109-1427,"org.eclipse.jdt.ui.CompilationUnitEditor",1386313779812
activated,editor,org.eclipse.jdt.ui,3.7.2.v20120109-1427,"org.eclipse.jdt.ui.CompilationUnitEditor",1386313779915
executed,command,org.eclipse.ui,3.7.0.v20110928-1505,"org.eclipse.ui.edit.copy",1386313783491
activated,editor,org.eclipse.jdt.ui,3.7.2.v20120109-1427,"org.eclipse.jdt.ui.CompilationUnitEditor",1386313785324
closed,editor,org.eclipse.jdt.ui,3.7.2.v20120109-1427,"org.eclipse.jdt.ui.CompilationUnitEditor",1386313785325
executed,command,org.eclipse.ui,3.7.0.v20110928-1505,"org.eclipse.ui.edit.paste",1386313786125
executed,command,org.eclipse.ui,3.7.0.v20110928-1505,"org.eclipse.ui.file.save",1386313824769
deactivated,workbench,org.eclipse.ui.workbench,3.7.1.v20120104-1859,"",1386313834065
activated,workbench,org.eclipse.ui.workbench,3.7.1.v20120104-1859,"",1386313834217
executed,command,org.eclipse.ui,3.7.0.v20110928-1505,"org.eclipse.ui.file.save",1386313838065
deactivated,workbench,org.eclipse.ui.workbench,3.7.1.v20120104-1859,"",1386313843379
activated,workbench,org.eclipse.ui.workbench,3.7.1.v20120104-1859,"",1386313860015
deactivated,workbench,org.eclipse.ui.workbench,3.7.1.v20120104-1859,"",1386313862059
activated,workbench,org.eclipse.ui.workbench,3.7.1.v20120104-1859,"",1386313863305
deactivated,workbench,org.eclipse.ui.workbench,3.7.1.v20120104-1859,"",1386313863311
activated,workbench,org.eclipse.ui.workbench,3.7.1.v20120104-1859,"",1386313916723
deactivated,workbench,org.eclipse.ui.workbench,3.7.1.v20120104-1859,"",1386313948931
activated,workbench,org.eclipse.ui.workbench,3.7.1.v20120104-1859,"",1386313955128
executed,command,org.eclipse.ui,3.7.0.v20110928-1505,"org.eclipse.ui.file.save",1386313969675
executed,command,org.eclipse.ui,3.7.0.v20110928-1505,"org.eclipse.ui.file.save",1386313988831
executed,command,org.eclipse.ui,3.7.0.v20110928-1505,"org.eclipse.ui.file.save",1386314059757
executed,command,org.eclipse.ui,3.7.0.v20110928-1505,"org.eclipse.ui.file.save",1386314067721
deactivated,workbench,org.eclipse.ui.workbench,3.7.1.v20120104-1859,"",1386314098808
activated,workbench,org.eclipse.ui.workbench,3.7.1.v20120104-1859,"",1386314098934
deactivated,workbench,org.eclipse.ui.workbench,3.7.1.v20120104-1859,"",1386314098939
activated,workbench,org.eclipse.ui.workbench,3.7.1.v20120104-1859,"",1386314100797
deactivated,workbench,org.eclipse.ui.workbench,3.7.1.v20120104-1859,"",1386314102205
activated,workbench,org.eclipse.ui.workbench,3.7.1.v20120104-1859,"",1386314180571
executed,command,org.eclipse.ui,3.7.0.v20110928-1505,"org.eclipse.ui.file.save",1386314200582
executed,command,org.eclipse.ui,3.7.0.v20110928-1505,"org.eclipse.ui.file.save",1386314308841
executed,command,org.eclipse.ui,3.7.0.v20110928-1505,"org.eclipse.ui.file.save",1386314452366
executed,command,org.eclipse.ui,3.7.0.v20110928-1505,"org.eclipse.ui.file.save",1386314464381
executed,command,org.eclipse.ui,3.7.0.v20110928-1505,"org.eclipse.ui.file.save",1386314485025
executed,command,org.eclipse.ui,3.7.0.v20110928-1505,"org.eclipse.ui.file.save",1386314513027
activated,view,org.eclipse.ui.console,3.5.100.v20111007_r372,"org.eclipse.ui.console.ConsoleView",1386314522009
activated,editor,org.eclipse.jdt.ui,3.7.2.v20120109-1427,"org.eclipse.jdt.ui.CompilationUnitEditor",1386314525891
executed,command,org.eclipse.ui,3.7.0.v20110928-1505,"org.eclipse.ui.file.save",1386314561544
executed,command,org.eclipse.jdt.ui,3.7.2.v20120109-1427,"org.eclipse.jdt.ui.edit.text.java.organize.imports",1386314586913
activated,editor,org.eclipse.jdt.ui,3.7.2.v20120109-1427,"org.eclipse.jdt.ui.CompilationUnitEditor",1386314593398
activated,editor,org.eclipse.jdt.ui,3.7.2.v20120109-1427,"org.eclipse.jdt.ui.CompilationUnitEditor",1386314600185
executed,command,org.eclipse.ui,3.7.0.v20110928-1505,"org.eclipse.ui.file.save",1386314652970
executed,command,org.eclipse.ui,3.7.0.v20110928-1505,"org.eclipse.ui.file.save",1386314671496
deactivated,workbench,org.eclipse.ui.workbench,3.7.1.v20120104-1859,"",1386314682753
activated,workbench,org.eclipse.ui.workbench,3.7.1.v20120104-1859,"",1386315034425
activated,view,org.eclipse.jdt.ui,3.7.2.v20120109-1427,"org.eclipse.jdt.ui.PackageExplorer",1386315036065
opened,editor,org.eclipse.jdt.ui,3.7.2.v20120109-1427,"org.eclipse.jdt.ui.CompilationUnitEditor",1386315036315
activated,editor,org.eclipse.jdt.ui,3.7.2.v20120109-1427,"org.eclipse.jdt.ui.CompilationUnitEditor",1386315036411
executed,command,org.eclipse.ui,3.7.0.v20110928-1505,"org.eclipse.ui.edit.paste",1386315043675
executed,command,org.eclipse.ui,3.7.0.v20110928-1505,"org.eclipse.ui.file.save",1386315047076
executed,command,org.eclipse.ui,3.7.0.v20110928-1505,"org.eclipse.ui.file.save",1386315053546
executed,command,org.eclipse.ui,3.7.0.v20110928-1505,"org.eclipse.ui.file.save",1386315056357
executed,command,org.eclipse.ui,3.7.0.v20110928-1505,"org.eclipse.ui.file.save",1386315095868
deactivated,workbench,org.eclipse.ui.workbench,3.7.1.v20120104-1859,"",1386315105256
activated,workbench,org.eclipse.ui.workbench,3.7.1.v20120104-1859,"",1386315271244
activated,view,org.eclipse.jdt.ui,3.7.2.v20120109-1427,"org.eclipse.jdt.ui.PackageExplorer",1386315313390
activated,editor,org.eclipse.jdt.ui,3.7.2.v20120109-1427,"org.eclipse.jdt.ui.CompilationUnitEditor",1386315320564
activated,editor,org.eclipse.jdt.ui,3.7.2.v20120109-1427,"org.eclipse.jdt.ui.CompilationUnitEditor",1386315326185
closed,editor,org.eclipse.jdt.ui,3.7.2.v20120109-1427,"org.eclipse.jdt.ui.CompilationUnitEditor",1386315326186
deactivated,workbench,org.eclipse.ui.workbench,3.7.1.v20120104-1859,"",1386315341470
activated,workbench,org.eclipse.ui.workbench,3.7.1.v20120104-1859,"",1386315599245
executed,command,org.eclipse.ui,3.7.0.v20110928-1505,"org.eclipse.ui.file.save",1386315609881
deactivated,workbench,org.eclipse.ui.workbench,3.7.1.v20120104-1859,"",1386315652276
activated,workbench,org.eclipse.ui.workbench,3.7.1.v20120104-1859,"",1386317038251
executed,command,org.eclipse.ui,3.7.0.v20110928-1505,"org.eclipse.ui.file.save",1386317067740
executed,command,org.eclipse.ui,3.7.0.v20110928-1505,"org.eclipse.ui.file.save",1386317076087
deactivated,workbench,org.eclipse.ui.workbench,3.7.1.v20120104-1859,"",1386317083454
activated,workbench,org.eclipse.ui.workbench,3.7.1.v20120104-1859,"",1386317251691
deactivated,workbench,org.eclipse.ui.workbench,3.7.1.v20120104-1859,"",1386317256452
activated,workbench,org.eclipse.ui.workbench,3.7.1.v20120104-1859,"",1386317278592
executed,command,org.eclipse.ui,3.7.0.v20110928-1505,"org.eclipse.ui.file.save",1386317308430
executed,command,org.eclipse.ui,3.7.0.v20110928-1505,"org.eclipse.ui.file.save",1386317321813
executed,command,org.eclipse.ui,3.7.0.v20110928-1505,"org.eclipse.ui.edit.copy",1386317367227
executed,command,org.eclipse.ui,3.7.0.v20110928-1505,"org.eclipse.ui.edit.paste",1386317367709
deactivated,workbench,org.eclipse.ui.workbench,3.7.1.v20120104-1859,"",1386317378379
activated,workbench,org.eclipse.ui.workbench,3.7.1.v20120104-1859,"",1386317379308
executed,command,org.eclipse.jdt.ui,3.7.2.v20120109-1427,"org.eclipse.jdt.ui.edit.text.java.organize.imports",1386317379355
executed,command,org.eclipse.ui,3.7.0.v20110928-1505,"org.eclipse.ui.file.save",1386317380713
deactivated,workbench,org.eclipse.ui.workbench,3.7.1.v20120104-1859,"",1386317409941
activated,workbench,org.eclipse.ui.workbench,3.7.1.v20120104-1859,"",1386317410250
executed,command,org.eclipse.ui,3.7.0.v20110928-1505,"org.eclipse.ui.file.save",1386317413062
executed,command,org.eclipse.ui,3.7.0.v20110928-1505,"org.eclipse.ui.file.save",1386317415366
deactivated,workbench,org.eclipse.ui.workbench,3.7.1.v20120104-1859,"",1386317416437
activated,workbench,org.eclipse.ui.workbench,3.7.1.v20120104-1859,"",1386317417888
executed,command,org.eclipse.jdt.ui,3.7.2.v20120109-1427,"org.eclipse.jdt.ui.edit.text.java.organize.imports",1386317417931
executed,command,org.eclipse.ui,3.7.0.v20110928-1505,"org.eclipse.ui.file.save",1386317419450
executed,command,org.eclipse.ui,3.7.0.v20110928-1505,"org.eclipse.ui.edit.copy",1386317422205
executed,command,org.eclipse.ui,3.7.0.v20110928-1505,"org.eclipse.ui.edit.paste",1386317425263
executed,command,org.eclipse.jdt.ui,3.7.2.v20120109-1427,"org.eclipse.jdt.ui.edit.text.java.organize.imports",1386317441971
executed,command,org.eclipse.ui,3.7.0.v20110928-1505,"org.eclipse.ui.file.save",1386317452816
executed,command,org.eclipse.ui,3.7.0.v20110928-1505,"org.eclipse.ui.edit.copy",1386317498561
executed,command,org.eclipse.ui,3.7.0.v20110928-1505,"org.eclipse.ui.edit.paste",1386317500550
executed,command,org.eclipse.ui,3.7.0.v20110928-1505,"org.eclipse.ui.file.save",1386317524793
executed,command,org.eclipse.ui,3.7.0.v20110928-1505,"org.eclipse.ui.file.save",1386317582001
executed,command,org.eclipse.ui,3.7.0.v20110928-1505,"org.eclipse.ui.file.save",1386317594617
activated,view,org.eclipse.jdt.ui,3.7.2.v20120109-1427,"org.eclipse.jdt.ui.PackageExplorer",1386317619936
activated,editor,org.eclipse.jdt.ui,3.7.2.v20120109-1427,"org.eclipse.jdt.ui.CompilationUnitEditor",1386317620146
executed,command,org.eclipse.ui,3.7.0.v20110928-1505,"org.eclipse.ui.file.save",1386317635834
executed,command,org.eclipse.ui,3.7.0.v20110928-1505,"org.eclipse.ui.file.save",1386317682985
executed,command,org.eclipse.ui,3.7.0.v20110928-1505,"org.eclipse.ui.file.save",1386317705725
executed,command,org.eclipse.ui,3.7.0.v20110928-1505,"org.eclipse.ui.edit.cut",1386317717181
deactivated,workbench,org.eclipse.ui.workbench,3.7.1.v20120104-1859,"",1386317718268
activated,workbench,org.eclipse.ui.workbench,3.7.1.v20120104-1859,"",1386317805915
executed,command,org.eclipse.jdt.ui,3.7.2.v20120109-1427,"org.eclipse.jdt.ui.edit.text.java.organize.imports",1386317808882
executed,command,org.eclipse.ui,3.7.0.v20110928-1505,"org.eclipse.ui.file.save",1386317809272
activated,view,org.eclipse.jdt.ui,3.7.2.v20120109-1427,"org.eclipse.jdt.ui.PackageExplorer",1386317816441
activated,editor,org.eclipse.jdt.ui,3.7.2.v20120109-1427,"org.eclipse.jdt.ui.CompilationUnitEditor",1386317816657
deactivated,workbench,org.eclipse.ui.workbench,3.7.1.v20120104-1859,"",1386317854033
activated,workbench,org.eclipse.ui.workbench,3.7.1.v20120104-1859,"",1386317873460
activated,view,org.eclipse.jdt.ui,3.7.2.v20120109-1427,"org.eclipse.jdt.ui.PackageExplorer",1386317927988
opened,editor,org.eclipse.jdt.ui,3.7.2.v20120109-1427,"org.eclipse.jdt.ui.CompilationUnitEditor",1386317928200
activated,editor,org.eclipse.jdt.ui,3.7.2.v20120109-1427,"org.eclipse.jdt.ui.CompilationUnitEditor",1386317928301
executed,command,org.eclipse.ui,3.7.0.v20110928-1505,"org.eclipse.ui.file.save",1386317944624
executed,command,org.eclipse.jdt.ui,3.7.2.v20120109-1427,"org.eclipse.jdt.ui.edit.text.java.organize.imports",1386317946159
executed,command,org.eclipse.ui,3.7.0.v20110928-1505,"org.eclipse.ui.file.save",1386317970199
executed,command,org.eclipse.ui,3.7.0.v20110928-1505,"org.eclipse.ui.file.save",1386317992703
executed,command,org.eclipse.ui,3.7.0.v20110928-1505,"org.eclipse.ui.file.save",1386318002337
executed,command,org.eclipse.ui,3.7.0.v20110928-1505,"org.eclipse.ui.file.save",1386318007213
executed,command,org.eclipse.ui,3.7.0.v20110928-1505,"org.eclipse.ui.file.save",1386318016339
executed,command,org.eclipse.jdt.ui,3.7.2.v20120109-1427,"org.eclipse.jdt.ui.edit.text.java.rename.element",1386318018565
started,bundle,org.eclipse.ant.ui,3.5.101.v20120110-1739,"org.eclipse.ant.ui",1386318037923
activated,view,org.eclipse.jdt.ui,3.7.2.v20120109-1427,"org.eclipse.jdt.ui.PackageExplorer",1386318041869
activated,editor,org.eclipse.jdt.ui,3.7.2.v20120109-1427,"org.eclipse.jdt.ui.CompilationUnitEditor",1386318042113
executed,command,org.eclipse.ui,3.7.0.v20110928-1505,"org.eclipse.ui.edit.copy",1386318047171
executed,command,org.eclipse.ui,3.7.0.v20110928-1505,"org.eclipse.ui.edit.copy",1386318047525
deactivated,workbench,org.eclipse.ui.workbench,3.7.1.v20120104-1859,"",1386318072430
activated,workbench,org.eclipse.ui.workbench,3.7.1.v20120104-1859,"",1386318078700
activated,view,org.eclipse.jdt.ui,3.7.2.v20120109-1427,"org.eclipse.jdt.ui.PackageExplorer",1386318118844
deactivated,workbench,org.eclipse.ui.workbench,3.7.1.v20120104-1859,"",1386318119848
activated,workbench,org.eclipse.ui.workbench,3.7.1.v20120104-1859,"",1386318123706
executed,command,org.eclipse.ui,3.7.0.v20110928-1505,"org.eclipse.ui.edit.delete",1386318123720
activated,editor,org.eclipse.jdt.ui,3.7.2.v20120109-1427,"org.eclipse.jdt.ui.CompilationUnitEditor",1386318124357
executed,command,org.eclipse.ui,3.7.0.v20110928-1505,"org.eclipse.ui.edit.copy",1386318126151
activated,view,org.eclipse.jdt.ui,3.7.2.v20120109-1427,"org.eclipse.jdt.ui.PackageExplorer",1386318127444
deactivated,workbench,org.eclipse.ui.workbench,3.7.1.v20120104-1859,"",1386318128240
closed,editor,org.eclipse.jdt.ui,3.7.2.v20120109-1427,"org.eclipse.jdt.ui.CompilationUnitEditor",1386318129596
activated,workbench,org.eclipse.ui.workbench,3.7.1.v20120104-1859,"",1386318129695
executed,command,org.eclipse.ui,3.7.0.v20110928-1505,"org.eclipse.ui.edit.delete",1386318129706
activated,editor,org.eclipse.jdt.ui,3.7.2.v20120109-1427,"org.eclipse.jdt.ui.CompilationUnitEditor",1386318130869
executed,command,org.eclipse.ui,3.7.0.v20110928-1505,"org.eclipse.ui.edit.paste",1386318134139
executed,command,org.eclipse.jdt.ui,3.7.2.v20120109-1427,"org.eclipse.jdt.ui.edit.text.java.format",1386318187126
executed,command,org.eclipse.ui,3.7.0.v20110928-1505,"org.eclipse.ui.file.save",1386318189094
executed,command,org.eclipse.ui,3.7.0.v20110928-1505,"org.eclipse.ui.file.save",1386318222589
deactivated,workbench,org.eclipse.ui.workbench,3.7.1.v20120104-1859,"",1386318224987
activated,workbench,org.eclipse.ui.workbench,3.7.1.v20120104-1859,"",1386318293410
executed,command,org.eclipse.ui,3.7.0.v20110928-1505,"org.eclipse.ui.file.save",1386318315832
activated,view,org.eclipse.jdt.ui,3.7.2.v20120109-1427,"org.eclipse.jdt.ui.PackageExplorer",1386318320997
opened,editor,org.eclipse.jdt.ui,3.7.2.v20120109-1427,"org.eclipse.jdt.ui.CompilationUnitEditor",1386318321480
activated,editor,org.eclipse.jdt.ui,3.7.2.v20120109-1427,"org.eclipse.jdt.ui.CompilationUnitEditor",1386318321578
activated,editor,org.eclipse.jdt.ui,3.7.2.v20120109-1427,"org.eclipse.jdt.ui.CompilationUnitEditor",1386318328267
executed,command,org.eclipse.ui,3.7.0.v20110928-1505,"org.eclipse.ui.file.save",1386318381352
executed,command,org.eclipse.ui,3.7.0.v20110928-1505,"org.eclipse.ui.file.save",1386318386664
activated,view,org.eclipse.ui.console,3.5.100.v20111007_r372,"org.eclipse.ui.console.ConsoleView",1386318402734
activated,editor,org.eclipse.jdt.ui,3.7.2.v20120109-1427,"org.eclipse.jdt.ui.CompilationUnitEditor",1386318427090
activated,view,org.eclipse.jdt.ui,3.7.2.v20120109-1427,"org.eclipse.jdt.ui.PackageExplorer",1386318442381
opened,editor,org.eclipse.jdt.ui,3.7.2.v20120109-1427,"org.eclipse.jdt.ui.CompilationUnitEditor",1386318442581
activated,editor,org.eclipse.jdt.ui,3.7.2.v20120109-1427,"org.eclipse.jdt.ui.CompilationUnitEditor",1386318442689
activated,editor,org.eclipse.jdt.ui,3.7.2.v20120109-1427,"org.eclipse.jdt.ui.CompilationUnitEditor",1386318461510
closed,editor,org.eclipse.jdt.ui,3.7.2.v20120109-1427,"org.eclipse.jdt.ui.CompilationUnitEditor",1386318461510
executed,command,org.eclipse.ui,3.7.0.v20110928-1505,"org.eclipse.ui.file.save",1386318503633
