what,kind,bundleId,bundleVersion,description,time
executed,command,org.eclipse.ui,3.7.0.v20110928-1505,"org.eclipse.ui.file.save",1386366755311
executed,command,org.eclipse.ui,3.7.0.v20110928-1505,"org.eclipse.ui.file.save",1386366783487
executed,command,org.eclipse.ui,3.7.0.v20110928-1505,"org.eclipse.ui.edit.copy",1386366806896
executed,command,org.eclipse.ui,3.7.0.v20110928-1505,"org.eclipse.ui.edit.copy",1386366811269
executed,command,org.eclipse.ui,3.7.0.v20110928-1505,"org.eclipse.ui.edit.paste",1386366837166
executed,command,org.eclipse.ui,3.7.0.v20110928-1505,"org.eclipse.ui.file.save",1386366865741
executed,command,org.eclipse.ui,3.7.0.v20110928-1505,"org.eclipse.ui.file.save",1386366896371
executed,command,org.eclipse.ui.workbench.texteditor,3.7.0.v20110928-1504,"org.eclipse.ui.edit.text.delete.line",1386366921913
executed,command,org.eclipse.ui,3.7.0.v20110928-1505,"org.eclipse.ui.file.save",1386366921963
deactivated,workbench,org.eclipse.ui.workbench,3.7.1.v20120104-1859,"",1386366925079
activated,workbench,org.eclipse.ui.workbench,3.7.1.v20120104-1859,"",1386366986839
executed,command,org.eclipse.ui,3.7.0.v20110928-1505,"org.eclipse.ui.file.save",1386366993551
deactivated,workbench,org.eclipse.ui.workbench,3.7.1.v20120104-1859,"",1386367015481
activated,workbench,org.eclipse.ui.workbench,3.7.1.v20120104-1859,"",1386367099855
activated,view,org.eclipse.jdt.ui,3.7.2.v20120109-1427,"org.eclipse.jdt.ui.PackageExplorer",1386367104972
activated,editor,org.eclipse.jdt.ui,3.7.2.v20120109-1427,"org.eclipse.jdt.ui.CompilationUnitEditor",1386367105239
executed,command,org.eclipse.ui,3.7.0.v20110928-1505,"org.eclipse.ui.file.save",1386367137131
executed,command,org.eclipse.ui,3.7.0.v20110928-1505,"org.eclipse.ui.edit.copy",1386367144700
executed,command,org.eclipse.ui,3.7.0.v20110928-1505,"org.eclipse.ui.edit.paste",1386367152654
executed,command,org.eclipse.ui,3.7.0.v20110928-1505,"org.eclipse.ui.file.save",1386367164255
activated,editor,org.eclipse.jdt.ui,3.7.2.v20120109-1427,"org.eclipse.jdt.ui.CompilationUnitEditor",1386367168164
activated,view,org.eclipse.jdt.ui,3.7.2.v20120109-1427,"org.eclipse.jdt.ui.PackageExplorer",1386367538158
deactivated,workbench,org.eclipse.ui.workbench,3.7.1.v20120104-1859,"",1386367543662
activated,workbench,org.eclipse.ui.workbench,3.7.1.v20120104-1859,"",1386367571614
opened,editor,org.eclipse.jdt.ui,3.7.2.v20120109-1427,"org.eclipse.jdt.ui.CompilationUnitEditor",1386367572005
activated,editor,org.eclipse.jdt.ui,3.7.2.v20120109-1427,"org.eclipse.jdt.ui.CompilationUnitEditor",1386367572088
executed,command,org.eclipse.ui,3.7.0.v20110928-1505,"org.eclipse.ui.file.save",1386367607902
executed,command,org.eclipse.ui,3.7.0.v20110928-1505,"org.eclipse.ui.file.save",1386367610516
executed,command,org.eclipse.ui,3.7.0.v20110928-1505,"org.eclipse.ui.file.save",1386367627542
executed,command,org.eclipse.ui,3.7.0.v20110928-1505,"org.eclipse.ui.file.save",1386367655677
executed,command,org.eclipse.ui,3.7.0.v20110928-1505,"org.eclipse.ui.file.save",1386367788323
executed,command,org.eclipse.ui,3.7.0.v20110928-1505,"org.eclipse.ui.file.save",1386367869892
executed,command,org.eclipse.ui,3.7.0.v20110928-1505,"org.eclipse.ui.file.save",1386367880627
executed,command,org.eclipse.ui,3.7.0.v20110928-1505,"org.eclipse.ui.file.save",1386367913763
executed,command,org.eclipse.ui,3.7.0.v20110928-1505,"org.eclipse.ui.file.save",1386367949547
deactivated,workbench,org.eclipse.ui.workbench,3.7.1.v20120104-1859,"",1386367952716
activated,workbench,org.eclipse.ui.workbench,3.7.1.v20120104-1859,"",1386367985500
deactivated,workbench,org.eclipse.ui.workbench,3.7.1.v20120104-1859,"",1386367987571
activated,workbench,org.eclipse.ui.workbench,3.7.1.v20120104-1859,"",1386367994626
activated,view,org.eclipse.jdt.ui,3.7.2.v20120109-1427,"org.eclipse.jdt.ui.PackageExplorer",1386368238700
activated,editor,org.eclipse.jdt.ui,3.7.2.v20120109-1427,"org.eclipse.jdt.ui.CompilationUnitEditor",1386368259376
deactivated,workbench,org.eclipse.ui.workbench,3.7.1.v20120104-1859,"",1386368275193
activated,workbench,org.eclipse.ui.workbench,3.7.1.v20120104-1859,"",1386368615321
deactivated,workbench,org.eclipse.ui.workbench,3.7.1.v20120104-1859,"",1386368618268
activated,workbench,org.eclipse.ui.workbench,3.7.1.v20120104-1859,"",1386368690766
deactivated,workbench,org.eclipse.ui.workbench,3.7.1.v20120104-1859,"",1386368693719
activated,workbench,org.eclipse.ui.workbench,3.7.1.v20120104-1859,"",1386368786272
activated,view,org.eclipse.jdt.ui,3.7.2.v20120109-1427,"org.eclipse.jdt.ui.PackageExplorer",1386368788416
activated,editor,org.eclipse.jdt.ui,3.7.2.v20120109-1427,"org.eclipse.jdt.ui.CompilationUnitEditor",1386368790770
deactivated,workbench,org.eclipse.ui.workbench,3.7.1.v20120104-1859,"",1386368837425
activated,workbench,org.eclipse.ui.workbench,3.7.1.v20120104-1859,"",1386368841400
deactivated,workbench,org.eclipse.ui.workbench,3.7.1.v20120104-1859,"",1386368842407
activated,workbench,org.eclipse.ui.workbench,3.7.1.v20120104-1859,"",1386439595800
activated,view,org.eclipse.jdt.ui,3.7.2.v20120109-1427,"org.eclipse.jdt.ui.PackageExplorer",1386439599952
closed,editor,org.eclipse.jdt.ui,3.7.2.v20120109-1427,"org.eclipse.jdt.ui.CompilationUnitEditor",1386439599952
closed,editor,org.eclipse.jdt.ui,3.7.2.v20120109-1427,"org.eclipse.jdt.ui.CompilationUnitEditor",1386439599999
closed,editor,org.eclipse.jdt.ui,3.7.2.v20120109-1427,"org.eclipse.jdt.ui.CompilationUnitEditor",1386439600036
closed,editor,org.eclipse.jdt.ui,3.7.2.v20120109-1427,"org.eclipse.jdt.ui.CompilationUnitEditor",1386439600161
closed,editor,org.eclipse.jdt.ui,3.7.2.v20120109-1427,"org.eclipse.jdt.ui.CompilationUnitEditor",1386439600173
closed,editor,org.eclipse.jdt.ui,3.7.2.v20120109-1427,"org.eclipse.jdt.ui.CompilationUnitEditor",1386439600260
closed,editor,org.eclipse.jdt.ui,3.7.2.v20120109-1427,"org.eclipse.jdt.ui.CompilationUnitEditor",1386439600341
deactivated,workbench,org.eclipse.ui.workbench,3.7.1.v20120104-1859,"",1386439605587
activated,workbench,org.eclipse.ui.workbench,3.7.1.v20120104-1859,"",1386439612098
deactivated,workbench,org.eclipse.ui.workbench,3.7.1.v20120104-1859,"",1386439618243
activated,workbench,org.eclipse.ui.workbench,3.7.1.v20120104-1859,"",1386439627697
deactivated,workbench,org.eclipse.ui.workbench,3.7.1.v20120104-1859,"",1386439634087
activated,workbench,org.eclipse.ui.workbench,3.7.1.v20120104-1859,"",1386439656442
opened,editor,org.eclipse.jdt.ui,3.7.2.v20120109-1427,"org.eclipse.jdt.ui.CompilationUnitEditor",1386439656944
activated,editor,org.eclipse.jdt.ui,3.7.2.v20120109-1427,"org.eclipse.jdt.ui.CompilationUnitEditor",1386439657006
activated,view,org.eclipse.jdt.ui,3.7.2.v20120109-1427,"org.eclipse.jdt.ui.PackageExplorer",1386439659095
opened,editor,org.eclipse.jdt.ui,3.7.2.v20120109-1427,"org.eclipse.jdt.ui.CompilationUnitEditor",1386439659338
activated,editor,org.eclipse.jdt.ui,3.7.2.v20120109-1427,"org.eclipse.jdt.ui.CompilationUnitEditor",1386439659428
activated,editor,org.eclipse.jdt.ui,3.7.2.v20120109-1427,"org.eclipse.jdt.ui.CompilationUnitEditor",1386439676936
executed,command,org.eclipse.jdt.ui,3.7.2.v20120109-1427,"org.eclipse.jdt.ui.edit.text.java.rename.element",1386439686336
executed,command,org.eclipse.ui,3.7.0.v20110928-1505,"org.eclipse.ui.file.save",1386439695668
activated,editor,org.eclipse.jdt.ui,3.7.2.v20120109-1427,"org.eclipse.jdt.ui.CompilationUnitEditor",1386439729432
activated,editor,org.eclipse.jdt.ui,3.7.2.v20120109-1427,"org.eclipse.jdt.ui.CompilationUnitEditor",1386439730676
deactivated,workbench,org.eclipse.ui.workbench,3.7.1.v20120104-1859,"",1386439788511
activated,workbench,org.eclipse.ui.workbench,3.7.1.v20120104-1859,"",1386439898850
deactivated,workbench,org.eclipse.ui.workbench,3.7.1.v20120104-1859,"",1386439907925
activated,workbench,org.eclipse.ui.workbench,3.7.1.v20120104-1859,"",1386439914068
executed,command,org.eclipse.ui,3.7.0.v20110928-1505,"org.eclipse.ui.file.save",1386439953991
executed,command,org.eclipse.ui,3.7.0.v20110928-1505,"org.eclipse.ui.edit.copy",1386439957881
executed,command,org.eclipse.ui,3.7.0.v20110928-1505,"org.eclipse.ui.edit.paste",1386439958472
executed,command,org.eclipse.ui,3.7.0.v20110928-1505,"org.eclipse.ui.file.save",1386439970706
executed,command,org.eclipse.ui,3.7.0.v20110928-1505,"org.eclipse.ui.file.save",1386439975505
executed,command,org.eclipse.ui,3.7.0.v20110928-1505,"org.eclipse.ui.file.save",1386439991616
executed,command,org.eclipse.ui,3.7.0.v20110928-1505,"org.eclipse.ui.file.save",1386440001191
executed,command,org.eclipse.ui,3.7.0.v20110928-1505,"org.eclipse.ui.file.save",1386440006364
executed,command,org.eclipse.ui,3.7.0.v20110928-1505,"org.eclipse.ui.file.save",1386440093354
deactivated,workbench,org.eclipse.ui.workbench,3.7.1.v20120104-1859,"",1386440118390
activated,workbench,org.eclipse.ui.workbench,3.7.1.v20120104-1859,"",1386440181337
activated,view,org.eclipse.jdt.ui,3.7.2.v20120109-1427,"org.eclipse.jdt.ui.PackageExplorer",1386440198739
opened,editor,org.eclipse.jdt.ui,3.7.2.v20120109-1427,"org.eclipse.jdt.ui.CompilationUnitEditor",1386440198979
activated,editor,org.eclipse.jdt.ui,3.7.2.v20120109-1427,"org.eclipse.jdt.ui.CompilationUnitEditor",1386440199071
activated,editor,org.eclipse.jdt.ui,3.7.2.v20120109-1427,"org.eclipse.jdt.ui.CompilationUnitEditor",1386440203137
closed,editor,org.eclipse.jdt.ui,3.7.2.v20120109-1427,"org.eclipse.jdt.ui.CompilationUnitEditor",1386440203138
deactivated,workbench,org.eclipse.ui.workbench,3.7.1.v20120104-1859,"",1386440245679
activated,workbench,org.eclipse.ui.workbench,3.7.1.v20120104-1859,"",1386440268605
deactivated,workbench,org.eclipse.ui.workbench,3.7.1.v20120104-1859,"",1386440271102
activated,workbench,org.eclipse.ui.workbench,3.7.1.v20120104-1859,"",1386440311130
activated,view,org.eclipse.jdt.ui,3.7.2.v20120109-1427,"org.eclipse.jdt.ui.PackageExplorer",1386440311155
deactivated,workbench,org.eclipse.ui.workbench,3.7.1.v20120104-1859,"",1386440330376
activated,workbench,org.eclipse.ui.workbench,3.7.1.v20120104-1859,"",1386440362573
opened,editor,org.eclipse.jdt.ui,3.7.2.v20120109-1427,"org.eclipse.jdt.ui.CompilationUnitEditor",1386440363457
activated,editor,org.eclipse.jdt.ui,3.7.2.v20120109-1427,"org.eclipse.jdt.ui.CompilationUnitEditor",1386440363537
activated,view,org.eclipse.jdt.ui,3.7.2.v20120109-1427,"org.eclipse.jdt.ui.PackageExplorer",1386440382136
deactivated,workbench,org.eclipse.ui.workbench,3.7.1.v20120104-1859,"",1386440383060
closed,editor,org.eclipse.jdt.ui,3.7.2.v20120109-1427,"org.eclipse.jdt.ui.CompilationUnitEditor",1386440383700
activated,workbench,org.eclipse.ui.workbench,3.7.1.v20120104-1859,"",1386440383801
executed,command,org.eclipse.ui,3.7.0.v20110928-1505,"org.eclipse.ui.edit.delete",1386440383812
activated,editor,org.eclipse.jdt.ui,3.7.2.v20120109-1427,"org.eclipse.jdt.ui.CompilationUnitEditor",1386440387033
executed,command,org.eclipse.ui,3.7.0.v20110928-1505,"org.eclipse.ui.file.save",1386440412610
activated,view,org.eclipse.jdt.ui,3.7.2.v20120109-1427,"org.eclipse.jdt.ui.PackageExplorer",1386440415965
deactivated,workbench,org.eclipse.ui.workbench,3.7.1.v20120104-1859,"",1386440418630
activated,workbench,org.eclipse.ui.workbench,3.7.1.v20120104-1859,"",1386440427039
opened,editor,org.eclipse.jdt.ui,3.7.2.v20120109-1427,"org.eclipse.jdt.ui.CompilationUnitEditor",1386440427416
activated,editor,org.eclipse.jdt.ui,3.7.2.v20120109-1427,"org.eclipse.jdt.ui.CompilationUnitEditor",1386440427488
executed,command,org.eclipse.ui,3.7.0.v20110928-1505,"org.eclipse.ui.file.save",1386440526437
executed,command,org.eclipse.ui,3.7.0.v20110928-1505,"org.eclipse.ui.file.save",1386440537001
executed,command,org.eclipse.ui,3.7.0.v20110928-1505,"org.eclipse.ui.file.save",1386440544627
executed,command,org.eclipse.ui,3.7.0.v20110928-1505,"org.eclipse.ui.file.save",1386440570295
activated,view,org.eclipse.jdt.ui,3.7.2.v20120109-1427,"org.eclipse.jdt.ui.PackageExplorer",1386440579610
opened,editor,org.eclipse.jdt.ui,3.7.2.v20120109-1427,"org.eclipse.jdt.ui.CompilationUnitEditor",1386440579824
activated,editor,org.eclipse.jdt.ui,3.7.2.v20120109-1427,"org.eclipse.jdt.ui.CompilationUnitEditor",1386440579916
closed,editor,org.eclipse.jdt.ui,3.7.2.v20120109-1427,"org.eclipse.jdt.ui.CompilationUnitEditor",1386440581598
activated,editor,org.eclipse.jdt.ui,3.7.2.v20120109-1427,"org.eclipse.jdt.ui.CompilationUnitEditor",1386440583291
executed,command,org.eclipse.ui,3.7.0.v20110928-1505,"org.eclipse.ui.file.save",1386440583938
activated,editor,org.eclipse.jdt.ui,3.7.2.v20120109-1427,"org.eclipse.jdt.ui.CompilationUnitEditor",1386440584691
closed,editor,org.eclipse.jdt.ui,3.7.2.v20120109-1427,"org.eclipse.jdt.ui.CompilationUnitEditor",1386440584691
activated,editor,org.eclipse.jdt.ui,3.7.2.v20120109-1427,"org.eclipse.jdt.ui.CompilationUnitEditor",1386440586536
executed,command,org.eclipse.ui,3.7.0.v20110928-1505,"org.eclipse.ui.file.save",1386440948710
deactivated,workbench,org.eclipse.ui.workbench,3.7.1.v20120104-1859,"",1386440977511
activated,workbench,org.eclipse.ui.workbench,3.7.1.v20120104-1859,"",1386441018220
executed,command,org.eclipse.ui,3.7.0.v20110928-1505,"org.eclipse.ui.file.save",1386441091890
executed,command,org.eclipse.ui,3.7.0.v20110928-1505,"org.eclipse.ui.file.save",1386441117914
executed,command,org.eclipse.ui,3.7.0.v20110928-1505,"org.eclipse.ui.file.save",1386441119792
deactivated,workbench,org.eclipse.ui.workbench,3.7.1.v20120104-1859,"",1386441274505
activated,workbench,org.eclipse.ui.workbench,3.7.1.v20120104-1859,"",1386441274639
executed,command,org.eclipse.ui,3.7.0.v20110928-1505,"org.eclipse.ui.file.save",1386441291050
deactivated,workbench,org.eclipse.ui.workbench,3.7.1.v20120104-1859,"",1386441292535
activated,workbench,org.eclipse.ui.workbench,3.7.1.v20120104-1859,"",1386441302697
executed,command,org.eclipse.ui,3.7.0.v20110928-1505,"org.eclipse.ui.file.save",1386441315637
executed,command,org.eclipse.ui,3.7.0.v20110928-1505,"org.eclipse.ui.file.save",1386441392198
executed,command,org.eclipse.ui,3.7.0.v20110928-1505,"org.eclipse.ui.file.save",1386441407309
executed,command,org.eclipse.ui,3.7.0.v20110928-1505,"org.eclipse.ui.edit.copy",1386441433902
executed,command,org.eclipse.ui,3.7.0.v20110928-1505,"org.eclipse.ui.edit.paste",1386441436224
deactivated,workbench,org.eclipse.ui.workbench,3.7.1.v20120104-1859,"",1386441459652
activated,workbench,org.eclipse.ui.workbench,3.7.1.v20120104-1859,"",1386441460348
executed,command,org.eclipse.jdt.ui,3.7.2.v20120109-1427,"org.eclipse.jdt.ui.edit.text.java.organize.imports",1386441460391
executed,command,org.eclipse.ui,3.7.0.v20110928-1505,"org.eclipse.ui.file.save",1386441509394
executed,command,org.eclipse.ui,3.7.0.v20110928-1505,"org.eclipse.ui.file.save",1386441525593
executed,command,org.eclipse.ui,3.7.0.v20110928-1505,"org.eclipse.ui.file.save",1386441774117
executed,command,org.eclipse.ui,3.7.0.v20110928-1505,"org.eclipse.ui.file.save",1386441779289
executed,command,org.eclipse.ui,3.7.0.v20110928-1505,"org.eclipse.ui.file.save",1386441798736
executed,command,org.eclipse.ui,3.7.0.v20110928-1505,"org.eclipse.ui.file.save",1386441812807
deactivated,workbench,org.eclipse.ui.workbench,3.7.1.v20120104-1859,"",1386441816936
activated,workbench,org.eclipse.ui.workbench,3.7.1.v20120104-1859,"",1386441835178
executed,command,org.eclipse.ui,3.7.0.v20110928-1505,"org.eclipse.ui.file.save",1386441859348
activated,view,org.eclipse.jdt.ui,3.7.2.v20120109-1427,"org.eclipse.jdt.ui.PackageExplorer",1386441867316
deactivated,workbench,org.eclipse.ui.workbench,3.7.1.v20120104-1859,"",1386441868748
activated,workbench,org.eclipse.ui.workbench,3.7.1.v20120104-1859,"",1386441870488
deactivated,workbench,org.eclipse.ui.workbench,3.7.1.v20120104-1859,"",1386441874334
activated,workbench,org.eclipse.ui.workbench,3.7.1.v20120104-1859,"",1386441875999
activated,editor,org.eclipse.jdt.ui,3.7.2.v20120109-1427,"org.eclipse.jdt.ui.CompilationUnitEditor",1386441887692
deactivated,workbench,org.eclipse.ui.workbench,3.7.1.v20120104-1859,"",1386441943490
activated,workbench,org.eclipse.ui.workbench,3.7.1.v20120104-1859,"",1386441976543
executed,command,org.eclipse.ui,3.7.0.v20110928-1505,"org.eclipse.ui.file.save",1386442003164
executed,command,org.eclipse.ui,3.7.0.v20110928-1505,"org.eclipse.ui.file.save",1386442006462
deactivated,workbench,org.eclipse.ui.workbench,3.7.1.v20120104-1859,"",1386442010802
activated,workbench,org.eclipse.ui.workbench,3.7.1.v20120104-1859,"",1386442010941
executed,command,org.eclipse.ui,3.7.0.v20110928-1505,"org.eclipse.ui.file.save",1386442012229
executed,command,org.eclipse.ui,3.7.0.v20110928-1505,"org.eclipse.ui.edit.copy",1386442020136
executed,command,org.eclipse.ui,3.7.0.v20110928-1505,"org.eclipse.ui.edit.paste",1386442022889
executed,command,org.eclipse.ui,3.7.0.v20110928-1505,"org.eclipse.ui.file.save",1386442024938
deactivated,workbench,org.eclipse.ui.workbench,3.7.1.v20120104-1859,"",1386442071888
activated,workbench,org.eclipse.ui.workbench,3.7.1.v20120104-1859,"",1386442075172
executed,command,org.eclipse.ui,3.7.0.v20110928-1505,"org.eclipse.ui.edit.copy",1386442079756
executed,command,org.eclipse.ui,3.7.0.v20110928-1505,"org.eclipse.ui.edit.paste",1386442103707
executed,command,org.eclipse.ui,3.7.0.v20110928-1505,"org.eclipse.ui.file.save",1386442115391
executed,command,org.eclipse.ui,3.7.0.v20110928-1505,"org.eclipse.ui.file.save",1386442122593
executed,command,org.eclipse.ui,3.7.0.v20110928-1505,"org.eclipse.ui.edit.copy",1386442143181
executed,command,org.eclipse.ui,3.7.0.v20110928-1505,"org.eclipse.ui.file.save",1386442176915
executed,command,org.eclipse.ui,3.7.0.v20110928-1505,"org.eclipse.ui.file.save",1386442188343
executed,command,org.eclipse.ui,3.7.0.v20110928-1505,"org.eclipse.ui.edit.copy",1386442200635
executed,command,org.eclipse.ui,3.7.0.v20110928-1505,"org.eclipse.ui.edit.paste",1386442202578
executed,command,org.eclipse.ui,3.7.0.v20110928-1505,"org.eclipse.ui.edit.copy",1386442222482
executed,command,org.eclipse.ui,3.7.0.v20110928-1505,"org.eclipse.ui.edit.paste",1386442226450
executed,command,org.eclipse.ui,3.7.0.v20110928-1505,"org.eclipse.ui.edit.copy",1386442254613
executed,command,org.eclipse.ui,3.7.0.v20110928-1505,"org.eclipse.ui.edit.paste",1386442256166
executed,command,org.eclipse.ui,3.7.0.v20110928-1505,"org.eclipse.ui.file.save",1386442320016
executed,command,org.eclipse.ui,3.7.0.v20110928-1505,"org.eclipse.ui.file.save",1386442361382
executed,command,org.eclipse.ui,3.7.0.v20110928-1505,"org.eclipse.ui.file.save",1386442386613
deactivated,workbench,org.eclipse.ui.workbench,3.7.1.v20120104-1859,"",1386442468479
activated,workbench,org.eclipse.ui.workbench,3.7.1.v20120104-1859,"",1386442474697
executed,command,org.eclipse.ui,3.7.0.v20110928-1505,"org.eclipse.ui.edit.paste",1386442477257
executed,command,org.eclipse.ui,3.7.0.v20110928-1505,"org.eclipse.ui.edit.copy",1386442487361
executed,command,org.eclipse.ui,3.7.0.v20110928-1505,"org.eclipse.ui.edit.paste",1386442490622
executed,command,org.eclipse.ui,3.7.0.v20110928-1505,"org.eclipse.ui.file.save",1386442503675
executed,command,org.eclipse.ui,3.7.0.v20110928-1505,"org.eclipse.ui.file.save",1386442618743
deactivated,workbench,org.eclipse.ui.workbench,3.7.1.v20120104-1859,"",1386442622313
activated,workbench,org.eclipse.ui.workbench,3.7.1.v20120104-1859,"",1386443159910
deactivated,workbench,org.eclipse.ui.workbench,3.7.1.v20120104-1859,"",1386443163402
activated,workbench,org.eclipse.ui.workbench,3.7.1.v20120104-1859,"",1386443164562
deactivated,workbench,org.eclipse.ui.workbench,3.7.1.v20120104-1859,"",1386443164995
activated,workbench,org.eclipse.ui.workbench,3.7.1.v20120104-1859,"",1386443987435
deactivated,workbench,org.eclipse.ui.workbench,3.7.1.v20120104-1859,"",1386443992271
activated,workbench,org.eclipse.ui.workbench,3.7.1.v20120104-1859,"",1386444783788
activated,view,org.eclipse.jdt.ui,3.7.2.v20120109-1427,"org.eclipse.jdt.ui.PackageExplorer",1386444787109
opened,editor,org.eclipse.jdt.ui,3.7.2.v20120109-1427,"org.eclipse.jdt.ui.CompilationUnitEditor",1386444787301
activated,editor,org.eclipse.jdt.ui,3.7.2.v20120109-1427,"org.eclipse.jdt.ui.CompilationUnitEditor",1386444787381
executed,command,org.eclipse.jdt.ui,3.7.2.v20120109-1427,"org.eclipse.jdt.ui.edit.text.java.rename.element",1386444790537
deactivated,workbench,org.eclipse.ui.workbench,3.7.1.v20120104-1859,"",1386444833027
activated,workbench,org.eclipse.ui.workbench,3.7.1.v20120104-1859,"",1386445379705
deactivated,workbench,org.eclipse.ui.workbench,3.7.1.v20120104-1859,"",1386445419043
activated,workbench,org.eclipse.ui.workbench,3.7.1.v20120104-1859,"",1386445636746
deactivated,workbench,org.eclipse.ui.workbench,3.7.1.v20120104-1859,"",1386445639039
activated,workbench,org.eclipse.ui.workbench,3.7.1.v20120104-1859,"",1386446644177
deactivated,workbench,org.eclipse.ui.workbench,3.7.1.v20120104-1859,"",1386446648463
activated,workbench,org.eclipse.ui.workbench,3.7.1.v20120104-1859,"",1386446684499
activated,view,org.eclipse.jdt.ui,3.7.2.v20120109-1427,"org.eclipse.jdt.ui.PackageExplorer",1386446684530
opened,editor,org.eclipse.jdt.ui,3.7.2.v20120109-1427,"org.eclipse.jdt.ui.CompilationUnitEditor",1386446684712
activated,editor,org.eclipse.jdt.ui,3.7.2.v20120109-1427,"org.eclipse.jdt.ui.CompilationUnitEditor",1386446684799
executed,command,org.eclipse.ui,3.7.0.v20110928-1505,"org.eclipse.ui.edit.copy",1386446687184
deactivated,workbench,org.eclipse.ui.workbench,3.7.1.v20120104-1859,"",1386446688428
activated,workbench,org.eclipse.ui.workbench,3.7.1.v20120104-1859,"",1386446848598
activated,view,org.eclipse.jdt.ui,3.7.2.v20120109-1427,"org.eclipse.jdt.ui.PackageExplorer",1386446848625
opened,editor,org.eclipse.jdt.ui,3.7.2.v20120109-1427,"org.eclipse.jdt.ui.CompilationUnitEditor",1386446848786
activated,editor,org.eclipse.jdt.ui,3.7.2.v20120109-1427,"org.eclipse.jdt.ui.CompilationUnitEditor",1386446848911
executed,command,org.eclipse.ui,3.7.0.v20110928-1505,"org.eclipse.ui.edit.copy",1386446857150
deactivated,workbench,org.eclipse.ui.workbench,3.7.1.v20120104-1859,"",1386446859380
activated,workbench,org.eclipse.ui.workbench,3.7.1.v20120104-1859,"",1386446944690
activated,view,org.eclipse.jdt.ui,3.7.2.v20120109-1427,"org.eclipse.jdt.ui.PackageExplorer",1386446944718
deactivated,workbench,org.eclipse.ui.workbench,3.7.1.v20120104-1859,"",1386446946537
executed,command,org.eclipse.ui,3.7.0.v20110928-1505,"org.eclipse.ui.edit.selectAll",1386446950765
executed,command,org.eclipse.ui,3.7.0.v20110928-1505,"org.eclipse.ui.edit.copy",1386446951110
activated,workbench,org.eclipse.ui.workbench,3.7.1.v20120104-1859,"",1386446959211
deactivated,workbench,org.eclipse.ui.workbench,3.7.1.v20120104-1859,"",1386446960935
activated,workbench,org.eclipse.ui.workbench,3.7.1.v20120104-1859,"",1386446962173
deactivated,workbench,org.eclipse.ui.workbench,3.7.1.v20120104-1859,"",1386446964976
activated,workbench,org.eclipse.ui.workbench,3.7.1.v20120104-1859,"",1386446970476
deactivated,workbench,org.eclipse.ui.workbench,3.7.1.v20120104-1859,"",1386446977722
activated,workbench,org.eclipse.ui.workbench,3.7.1.v20120104-1859,"",1386446979323
deactivated,workbench,org.eclipse.ui.workbench,3.7.1.v20120104-1859,"",1386446982736
activated,workbench,org.eclipse.ui.workbench,3.7.1.v20120104-1859,"",1386446984947
deactivated,workbench,org.eclipse.ui.workbench,3.7.1.v20120104-1859,"",1386446994332
activated,workbench,org.eclipse.ui.workbench,3.7.1.v20120104-1859,"",1386446995955
deactivated,workbench,org.eclipse.ui.workbench,3.7.1.v20120104-1859,"",1386447001400
activated,workbench,org.eclipse.ui.workbench,3.7.1.v20120104-1859,"",1386447002960
activated,editor,org.eclipse.jdt.ui,3.7.2.v20120109-1427,"org.eclipse.jdt.ui.CompilationUnitEditor",1386447008442
deactivated,workbench,org.eclipse.ui.workbench,3.7.1.v20120104-1859,"",1386447023976
activated,workbench,org.eclipse.ui.workbench,3.7.1.v20120104-1859,"",1386447240782
deactivated,workbench,org.eclipse.ui.workbench,3.7.1.v20120104-1859,"",1386447241834
activated,workbench,org.eclipse.ui.workbench,3.7.1.v20120104-1859,"",1386447244780
deactivated,workbench,org.eclipse.ui.workbench,3.7.1.v20120104-1859,"",1386447246458
activated,workbench,org.eclipse.ui.workbench,3.7.1.v20120104-1859,"",1386447246552
deactivated,workbench,org.eclipse.ui.workbench,3.7.1.v20120104-1859,"",1386447247469
activated,workbench,org.eclipse.ui.workbench,3.7.1.v20120104-1859,"",1386447247577
deactivated,workbench,org.eclipse.ui.workbench,3.7.1.v20120104-1859,"",1386447248372
activated,workbench,org.eclipse.ui.workbench,3.7.1.v20120104-1859,"",1386447250401
activated,editor,org.eclipse.jdt.ui,3.7.2.v20120109-1427,"org.eclipse.jdt.ui.CompilationUnitEditor",1386447271957
closed,editor,org.eclipse.jdt.ui,3.7.2.v20120109-1427,"org.eclipse.jdt.ui.CompilationUnitEditor",1386447271958
activated,editor,org.eclipse.jdt.ui,3.7.2.v20120109-1427,"org.eclipse.jdt.ui.CompilationUnitEditor",1386447273011
closed,editor,org.eclipse.jdt.ui,3.7.2.v20120109-1427,"org.eclipse.jdt.ui.CompilationUnitEditor",1386447273011
activated,editor,org.eclipse.jdt.ui,3.7.2.v20120109-1427,"org.eclipse.jdt.ui.CompilationUnitEditor",1386447274117
closed,editor,org.eclipse.jdt.ui,3.7.2.v20120109-1427,"org.eclipse.jdt.ui.CompilationUnitEditor",1386447274118
activated,editor,org.eclipse.jdt.ui,3.7.2.v20120109-1427,"org.eclipse.jdt.ui.CompilationUnitEditor",1386447275224
activated,editor,org.eclipse.jdt.ui,3.7.2.v20120109-1427,"org.eclipse.jdt.ui.CompilationUnitEditor",1386447278513
closed,editor,org.eclipse.jdt.ui,3.7.2.v20120109-1427,"org.eclipse.jdt.ui.CompilationUnitEditor",1386447278513
activated,view,org.eclipse.jdt.ui,3.7.2.v20120109-1427,"org.eclipse.jdt.ui.PackageExplorer",1386447279363
closed,editor,org.eclipse.jdt.ui,3.7.2.v20120109-1427,"org.eclipse.jdt.ui.CompilationUnitEditor",1386447279363
deactivated,workbench,org.eclipse.ui.workbench,3.7.1.v20120104-1859,"",1386447282937
activated,workbench,org.eclipse.ui.workbench,3.7.1.v20120104-1859,"",1386447290274
opened,editor,org.eclipse.jdt.ui,3.7.2.v20120109-1427,"org.eclipse.jdt.ui.CompilationUnitEditor",1386447292036
activated,editor,org.eclipse.jdt.ui,3.7.2.v20120109-1427,"org.eclipse.jdt.ui.CompilationUnitEditor",1386447292104
